Gegenstand;                  kg;       Wert;    Häufigkeit;  Beschreibung
Arbeitspferd;               400;      7 |GF|;
Bier;                       0.5;      1 |MU|;
Bolzen (normal);            1.5;     16 |KL|;
Bolzen (Splitter);          0.2;      8 |KL|;
Cidre;                        1;      1 |MU|;
Dietrich;                   0.1;      2 |TT|;
Elefant;                  5,500;    130 |GF|;
Fackel;                     0.1;      1 |MU|;
Fährfahrt;                     ;      2 |KL|;
Falle;                        1;     18 |KL|;
Federkiel;                  0.1;      7 |KL|;
Feuerstein und Zunder;      0.3;     22 |MU|;
Galeere, groß;                 ; 20,000 |GF|;
Galeere, klein;                ;  7,500 |GF|;
Gasthauszimmer;                ;      1 |KL|;
Glasphiole;                 0.1;      5 |KL|;
Glücksbringer;              0.3;      1 |TT|;
Göttliches Symbol;          0.2;      5 |TT|;
Haltbare Nahrung;             5;      3 |KL|;
Hammer, klein;                2;     26 |KL|;
Handschuhe;                 0.2;      3 |KL|;
Hängematte;                   2;      3 |KL|;
Heilertasche (groß);          4;     24 |GF|;
Heilertasche (klein);         2;     10 |GF|;
Heilsalbe;                 0.05;     10 |GF|;
Heiltrank;                  0.1;     40 |GF|;
Hemd;                       0.5;      5 |KL|;
Hose;                         1;      4 |KL|;
Hundeschlitten;                ;    126 |TT|;
Hut;                        0.5;      1 |TT|;
Kamel;                      450;
Kanu;                        70;
Kerze;                     0.05;
Kette;                      3/m;
Kletterhaken;               0.1;
Köcher;                     1.5;
Krähenfüße;                 0.1;
Kreide;                        ;
Kriegsschiff;                  ;
Kutsche;                  1,500;
Lama;                       100;
Laterne;                      1;
Mahlzeit;                      ;
Maultier;                   200;
Metallkugeln(Schleuder);      1;
Ochse;                    1,000;
Öl;                         0.5;
Pergament;                  0.1;
Pfeile;                     1.2;
Pferdekarren;               200;
Planwagen;                  450;
Pony;                          ;
Reitpferd;                     ;
Rucksack;                     1;
Ruderboot;                  100;
Sattel;                       6;
Satteltaschen;                5;
Schiffsreise;                  ;
Schlachtross;               600;
Schlafrolle;                  4;
Schloss;                    0.5;
Segelboot (10m);               ;
Segelschiff, groß;             ;
Segelschiff, mittel;           ;
Seil;                     0.2/m;
Seil, verstärkt;          0.3/m;
Seil mit Wurfhaken;           5;
Spiegel;                    0.2;
Stallplatz;                    ;
Stiefel;                      2;
Umhang;                     1.5;
Waffengürtel;               0.5;
Wasserbeutel (leer);        0.1;
Wasserbeutel (voll);        1.1;
Wein;                       0.2;
Zelt;                         3;